/home/jaswant/IdeaProjects/roba-userlogin-thymeleaf/src/main/java/com/reactivestax/business/model/LoginModelObject.java
/home/jaswant/IdeaProjects/roba-userlogin-thymeleaf/src/main/java/com/reactivestax/business/SpringBusinessConfig.java
/home/jaswant/IdeaProjects/roba-userlogin-thymeleaf/src/main/java/com/reactivestax/web/SpringWebConfig.java
/home/jaswant/IdeaProjects/roba-userlogin-thymeleaf/src/main/java/com/reactivestax/SpringWebApplicationInitializer.java
/home/jaswant/IdeaProjects/roba-userlogin-thymeleaf/src/main/java/com/reactivestax/business/model/UserModelObject.java
/home/jaswant/IdeaProjects/roba-userlogin-thymeleaf/src/main/java/com/reactivestax/business/dao/RegisterDAO.java
/home/jaswant/IdeaProjects/roba-userlogin-thymeleaf/src/main/java/com/reactivestax/web/controllers/MainController.java
/home/jaswant/IdeaProjects/roba-userlogin-thymeleaf/src/main/java/com/reactivestax/web/controllers/SampleController.java
